{
  "file_generated_by": "FlutterFire CLI",
  "purpose": "FirebaseAppID & ProjectID for this Firebase app in this directory",
  "GOOGLE_APP_ID": "1:146398425383:ios:7f057a9b06aabbe8ec7902",
  "FIREBASE_PROJECT_ID": "beroli-dev",
  "GCM_SENDER_ID": "146398425383"
}